;S;|;Rodzaj;|;Symbol;|;Nazwa;|;Stan;|;Dostępne;|;J.m.;|;Detaliczna netto;|;Detaliczna brutto;|;Kod kreskowy;
; ;|;T;|1023|;EWA GOTUJE. ULUBIONE;|920|920|;szt.;|39,9|41,9|9788360169032
; ;|;T;|;TEODRAMAT2CZ2-P W0;|;TEODRAMATYKA TOM II CZĘŚĆ 2;|20|20|;SZT;|94,29|99|9788360725023
; ;|;T;|;KRWAWEDIAMENTY-P W0;|;KRWAWE  DIAMENTY;|20|20|;SZT;|27,62|29|9788360725030
; ;|;T;|;BIBLIALECZBGŁ-P W0;|;BIBLIA LECZY - BÓLE GŁOWY;|1|1|;szt.;|12,38|13|9788360725177
; ;|;T;|;P-JEZUSZNAZARETB-W0;|;BENEDYKT XVI JEZUS Z NAZARETU TOM 1;|2|2|;szt.;|23,8|24,99|9788360725221
; ;|;T;|;BIBLIALECZCHSE-P W0;|;BIBLIA LECZY - CHOROBY SERCA;|2|2|;szt.;|12,38|13|9788360725344
; ;|;T;|;BIBLIALECZRAK-P D2;|;BIBLIA LECZY - RAK D2;|2|2|;szt.;|12,38|13|9788360725603
; ;|;T;|;LOURDESMODLITEWNIK;|;NABOŻEŃSTWO DO MATKI BOŻEJ Z LOURDES;|1|1|;szt.;|14,19|14,9|9788360725641
; ;|;T;|;NAWIEDZENIE-P W0;|;NAWIEDZENIE;|8|8|;szt.;|33,24|34,9|9788360725894
; ;|;T;|;HISTEOLOGNOW-P W0;|;HISTORIA TEOLOGII EPOKA NOWOŻYTNA;|89|89|;szt.;|113,33|119|9788360725955
; ;|;T;|;PRZYSIEGA-P W0;|;PRZYSIĘGA;|2|2|;szt.;|33,24|34,9|9788360725962
; ;|;T;|2248|;KAROLA WOJTYŁY - JANA PAWŁA II KATEDRA NA WAWELU;|269|269|;szt.;|23,81|25|9788361793045
; ;|;T;|8372210357|;NAUKA O BOGU /W.BREUNING/;|23|23|;SZT;|26,67|28|9788372210357
; ;|;T;|;LITODPNATRUPYT-P W0;|;LITURGIA- ODPOWIEDZI NA TRUDNE PYTANIA /R.FALSINI/;|21|21|;SZT;|23,71|24,9|9788372212948
; ;|;T;|;TEODRAMATYKAT1-P W0;|;TEODRAMATYKA T.1. PROLEGOMENA;|10|10|;szt.;|33,33|35|9788372214042
; ;|;T;|;P-KORONKIDOMIŁ-W4;|;KORONKI DO MIŁOSIERDZIA BOŻEGO;|10|10|;szt.;|2,38|2,5|9788372215567
; ;|;T;|;HISTEOLOGSRED-P W0;|;HISTORIA TEOLOGII ŚREDNIOWIECZE;|34|34|;szt.;|113,33|119|9788372216809
; ;|;T;|;P-JAKPOKSZATANA-D8;|;JAK POKONAĆ SZATANA - MODLITEWNIK;|1535|1535|;szt.;|2,38|2,5|9788372217289
; ;|;T;|;HOPKINS;|;ANTHONY HOPKINS - BIOGRAFIA;|1|1|;SZT;|38|39,9|9788372217318
; ;|;T;|1513004|;ŚW. FILOMENA. MODLITEWNIK;|3|3|;SZT;|2,38|2,5|9788372217363
; ;|;T;|1514004|;ŚW. RITA. MODLITEWNIK;|39|39|;SZT;|2,81|2,95|9788372217521
; ;|;T;|;KONKLAWEXXWIEK-P W0;|;KONKLAWE XX WIEKU;|4|4|;szt.;|14,19|14,9|9788372217530
; ;|;T;|2090|;ŚW. ANTONI PADEWSKI - MODLITEWNIK D6;|2268|2268|;szt.;|2,38|2,5|9788372217602
; ;|;T;|2496069|;ŚW. EKSPEDYT - MODLITEWNIK D6;|23|23|;szt.;|1,81|1,9|9788372217684
; ;|;T;|;P-SWEKSPEDYTMOD-D7;|;ŚW. EKSPEDYT - MODLITEWNIK;|1564|1564|;szt.;|2,38|2,5|9788372217688
; ;|;T;|2125|;ŚW. JUDA TADEUSZ- MODLITEWNIK D9;|2003|2003|;szt.;|2,81|2,95|9788372217769
; ;|;T;|;POTRPOSTIDIET-P W0;|;POTRAWY POSTNE I DIETETYCZNE /P.A. BILGRI/;|2|2|;SZT;|11,33|11,9|9788372218162
; ;|;T;|2363029|;ŚW. FRANCISZEK - SŁOWA NA KAŻDY DZIEŃ W2;|1|1|;szt.;|18,95|19,9|9788372218360
; ;|;T;|8372218935|;ALFABET ROKITY ;|3|3|;SZT;|32,38|34|9788372218933
; ;|;T;|298000|;SYSTEM ZARZĄDZANIA W UNII EUROPEJSKIEJ PRZEWODNIK ;|5|5|;SZT;|33,24|34,9|9788372219466
; ;|;T;|8373181733|;TEOLOGIKA - I PRAWDA ŚWIATA /U.VON BALTHASAR;|13|13|;SZT;|65,71|69|9788373181731
; ;|;T;|1842|;BIBLIA RODZINNA W1;|26|26|;szt.;|65,71|69|9788375586053
; ;|;T;|;SLEDZTWOWSPR-P W0;|;ŚLEDZTWO W SPRAWIE ŚMIERCI JEZUSA;|252|252|;szt.;|33,24|34,9|9788375950069
; ;|;T;|;BOGMALHISNAJ-P W0;|;BÓG. MAŁA HISTORIA NAJWIĘKSZEGO;|4|4|;szt.;|33,24|34,9|9788375950076
; ;|;T;|;PRZEPISNANIESM-P W0;|;PRZEPIS NA NIEŚMIERTELNOŚĆ;|290|290|;szt.;|28,47|29,89|9788375950090
; ;|;T;|;BIBLIALECZST-P W0;|;BIBLIA LECZY - STRES;|1|1|;szt.;|11,43|12|9788375950137
; ;|;T;|;PROROCTOWATYK-P W0;|;PROROCTWO O WATYKANIE;|16|16|;szt.;|28,48|29,9|9788375950267
; ;|;T;|;TAJEMNICEBIBLI-P W0;|;TAJEMNICE BIBLII;|1|1|;szt.;|38|39,9|9788375950335
; ;|;T;|;WIRUS-P W0;|;WIRUS;|174|11|;szt.;|40|42|9788375950359
; ;|;T;|;TOLKIENILEWIS-P W0;|;TOLKIEN I LEWIS;|4|4|;szt.;|30,48|32|9788375950373
; ;|;T;|;OREDOWNICY;|;MALI ORĘDOWNICY - MODLITEWNIK;|1|1|;szt.;|11,43|12|9788375950403
; ;|;T;|;PRZYBJEZDZIEC-P W0;|;PRZYBYWA JEŹDZIEC;|600|5|;szt.;|40|42|9788375950434
; ;|;T;|;APOSTOŁOWIE;|;NABOŻEŃSTWO DO APOSTOŁÓW;|6|6|;szt.;|14,19|14,9|9788375950441
; ;|;T;|;TAJEMGRAALA-P W0;|;TAJEMNICA GRAALA;|42|42|;szt.;|20,95|22|9788375950458
; ;|;T;|;CIAGLOSC;|;MIĘDZY CIĄGŁOŚCIĄ A ZMIANĄ;|3|3|;szt.;|28,47|29,89|9788375950571
; ;|;T;|;OKAPŁAŃSTWIE-P W0;|;O KAPŁAŃSTWIE;|1|1|;szt.;|23,71|24,9|9788375950670
; ;|;T;|;BIBLIALECZGR-P D1;|;BIBLIA LECZY - GRYPA D1;|2|2|;szt.;|12,38|13|9788375950748
; ;|;T;|;HISTEOLOGODR-P W0;|;HISTORIA TEOLOGII EPOKA ODRODZENIA;|86|86|;szt.;|113,33|119|9788375950786
; ;|;T;|;BIBLIALECZNAD-P W0;|;BIBLIA LECZY - NADCIŚNIENIE;|3|3|;szt.;|12,38|13|9788375950793
; ;|;T;|;OJCIECELIASZ-P W0;|;OJCIEC ELIASZ;|825|825|;szt.;|38|39,9|9788375950830
; ;|;T;|;CENAPURPURY-P W0;|;CENA PURPURY;|790|790|;szt.;|38|39,9|9788375950878
; ;|;T;|2589510|;BÓL KRZYWDY, RADOŚĆ PRZEBACZENIA D5;|533|533|;szt.;|18,95|19,9|9788375950885
; ;|;T;|;DZIECIĄTKO;|;NABOŻEŃSTWO DO DZIECIĄTKA JEZUS;|3|3|;szt.;|11,43|12|9788375950892
; ;|;T;|2388019|;NASZE MAŁŻEŃSTWO NIE MOŻE BYĆ PRZEGRANĄ W1;|1|1|;szt.;|23,71|24,9|9788375950953
; ;|;T;|;POKOJSERCA-P W1;|;POKÓJ SERCA W1;|559|559|;szt.;|23,71|24,9|9788375951042
; ;|;T;|;KRÓL;|;NABOŻEŃSTWO DO CHRYSTUSA KRÓLA;|1|1|;szt.;|9,43|9,9|9788375951059
; ;|;T;|;P-KORONKIDOMILBOZ-D4;|;KORONKI DO MIOSIERDZIA BOŻEGO;|2716|2716|;szt.;|2,38|2,5|9788375951080
; ;|;T;|;SZARAEMINENCJA-P W0;|;SZARA EMINENCJA WATYKANU;|125|125|;szt.;|28,48|29,9|9788375951141
; ;|;T;|;KSIEGAMODLITW-P W2;|;KSIĘGA MODLITW W2;|5|5|;szt.;|28,48|29,9|9788375951158
; ;|;T;|2397039|;SAKRAMENT POJEDNANIA W3;|1|1|;szt.;|12,28|12,89|9788375951165
; ;|;T;|;KSIENOWEPRZYM-P W1;|;KSIĘGI NOWEGO PRZYMIERZA W1;|1|1|;szt.;|47,52|49,9|9788375951196
; ;|;T;|;OSTATNIAGÓRA-P W1;|;OSTATNIA GÓRA;|952|952|;szt.;|25,71|27|9788375951226
; ;|;T;|;PRZERWANYTANIE-P W1;|;PRZERWANY TANIEC;|319|319|;szt.;|23,71|24,9|9788375951301
; ;|;T;|;PODREGZORC-P W5;|;PODRĘCZNIK EGZORCYSTY;|149|149|;szt.;|23,71|24,9|9788375951325
; ;|;T;|;DROGAKUZNIAR;|;DROGA KRZYŻOWA NA NOWO ODCZYTANA;|341|341|;szt.;|14,19|14,9|9788375951424
; ;|;T;|2542019|;KRZYWDA I PRZEBACZENIE W1;|7|7|;szt.;|18,95|19,9|9788375951431
; ;|;T;|2459019|;BOŻE PERPETUM MOBILE W1;|1|1|;szt.;|28,48|29,9|9788375951462
; ;|;T;|;PTWCUDA;|;PTW CUDA I ZMARTWYCHWSTANIE;|24|24|;szt.;|11,9|12,5|9788375951509
; ;|;T;|;ZMIERZCHORLA-P W0;|;ZMIERZCH ORŁA;|334|334|;szt.;|38|39,9|9788375951547
; ;|;T;|;DROGINADZIEI-P W0;|;DROGI NADZIEI - REKOLEKCJE DLA MAŁŻEŃSTW NIESAKRAM;|396|396|;SZT;|16,19|17|9788375951554
; ;|;T;|;SZCZESCIEWPIG-P W0;|;SZCZĘŚCIE W PIGUŁCE;|1233|1233|;szt.;|33,24|34,9|9788375951561
; ;|;T;|;ANIOLKOWE;|;ANIOŁKOWE MAMY;|150|150|;szt.;|23,71|24,9|9788375951578
; ;|;T;|;NOWENNADONMPR-P W4;|;NOWENNA DO NMP RÓŻAŃCOWEJ Z POMPEI W4;|965|965|;szt.;|14,19|14,9|9788375951677
; ;|;T;|;DROGAWERONIKA;|;ŚWIADKOWIE MĘKI CHRYSTUSA. DROGA KRZYŻOWA...;|843|843|;szt.;|4,76|5|9788375951783
; ;|;T;|;EKSTRWYPASREKO-P W4;|;EKSTREMALNIE WYPASIONE REKOLEKCJE W4;|27|27|;szt.;|14,29|15|9788375951790
; ;|;T;|;BIBLIALECZCHS-P W0;|;BIBLIA LECZY - CHOROBY SKÓRY;|1|1|;szt.;|12,38|13|9788375951882
; ;|;T;|2457029|;KSZTAŁTOWANIE SUMIENIA /JAN PAWEŁ II/ W2;|19|19|;szt.;|23,71|24,9|9788375951899
; ;|;T;|;PTWGRZECH;|;PTW TAJEMNICA GRZECHU;|8|8|;szt.;|11,9|12,5|9788375951936
; ;|;T;|;DEADLINE-P W0;|;DEADLINE;|1654|1654|;szt.;|46,67|49|9788375952001
; ;|;T;|;LECHKACZPORTRE-P W0;|;LECH KACZYŃSKI PORTRET;|22|22|;szt.;|28,48|29,9|9788375952025
; ;|;T;|;PROSTAMODLITWA-P W0;|;PROSTA MODLITWA;|115|115|;szt.;|20,95|22|9788375952049
; ;|;T;|;GRAMATZYCDUCH-P W0;|;GRAMATYKA ŻYCIA DUCHOWEGO /ŚW. IZAAK Z NINIWY/;|508|508|;szt.;|23,71|24,9|9788375952100
; ;|;T;|;P-DROGAKRZYŻZKARD-W0;|;DROGA KRZYŻOWA Z KARDYNAŁEM WYSZYŃSKIM;|8|8|;szt.;|2,38|2,5|9788375952117
; ;|;T;|1966|;ENCYKLIKA DIVES IN MISERICORDIA;|4|4|;szt.;|5,71|6|9788375952124
; ;|;T;|;WSZKOLEROZANCA-P W0;|;W SZKOLE RÓŻAŃCA /M. CHMIELEWSKI/;|21|21|;szt.;|9,43|9,9|9788375952148
; ;|;T;|;EGZORCYZWBIBL-P W0;|;EGZORCYZMY W BIBLII I PRAKTYCE KOŚCIOŁA;|12|12|;szt.;|9,43|9,9|9788375952155
; ;|;T;|2035|;MAM WSZYSTKO 18 LAT ŻYCIA CH. LUCE W1;|4|4|;szt.;|13,24|13,9|9788375952179
; ;|;T;|;CZEGODUSZAPRAG-P W0;|;CZEGO DUSZA PRAGNIE;|680|680|;szt.;|28,52|29,95|9788375952193
; ;|;T;|;MARTAJEMBOZMIL-P W0;|;MARYJA. TAJEMNICA BOŻEGO MIŁOSIERDZIA;|8|8|;szt.;|18,95|19,9|9788375952209
; ;|;T;|;WYBAWODZŁA-P W0;|;WYBAWIENI OD ZŁA;|13|13|;szt.;|14,19|14,9|9788375952223
; ;|;T;|;WSPOMOSTEFKARW-P W1;|;WSPOMNIENIA O STEFANIE KARDYNALE WYSZYŃSKIM;|11|11|;szt.;|23,71|24,9|9788375952230
; ;|;T;|;W-SWIATNASZUCZ-D8;|;ŚWIAT NASZYCH UCZUĆ D8;|897|897|;szt.;|14,19|14,9|9788375952247
; ;|;T;|;KSIESTARPRZYM-P W0;|;KSIĘGI STAREGO PRZYMIERZA /R.BRANDSTEATTER/.  PRZE;|4|4|;SZT;|28,48|29,9|9788375952285
; ;|;T;|;KRZYZJPII;|;KRZYŻ ZBAWICIELA /JAN PAWEŁ II/;|720|720|;szt.;|23,71|24,9|9788375952308
; ;|;T;|2136|;MODLITEWNIK ŚW. JAKUB;|6|6|;szt.;|2,38|2,5|9788375952346
; ;|;T;|;REKOLZKARDSTWY-P W1;|;REKOLEKCJE Z ... KARDYNAŁEM STEFANEM WYSZYŃSKIM ;|39|39|;szt.;|14,24|14,95|9788375952353
; ;|;T;|;BIBLIALECZBP-P W0;|;BIBLIA LECZY - BÓLE PLECÓW;|2|2|;szt.;|12,38|13|9788375952377
; ;|;T;|;SZANSANAWIEMIL-P W0;|;SZANSA NA WIĘKSZĄ MIŁOŚĆ;|323|323|;szt.;|6,67|7|9788375952384
; ;|;T;|2540009|;KIEDY MAŁŻEŃSTWO JEST NIEWAŻNE W1;|4|4|;szt.;|33,24|34,9|9788375952414
; ;|;T;|;PIERWSISWIAD-P D1;|;PIERWSI ŚWIADKOWIE D1;|361|361|;szt.;|30,48|32|9788375952452
; ;|;T;|2149|;MODLITEWNIK DO KRZYŻA ŚWIĘTEGO/ MAŁY;|290|290|;szt.;|2,38|2,5|9788375952469
; ;|;T;|;P-PAPIEŻBOŻEGO-W1;|;PAPIEŻ BOŻEGO MIŁOSIERDZIA;|31|31|;szt.;|9,43|9,9|9788375952513
; ;|;T;|;ANIOLOWIE-P W1;|;ANIOŁOWIE;|204|204|;szt.;|23,71|24,9|9788375952537
; ;|;T;|;P-REKOLEKCJEZJPII-W1;|;REKOLEKCJE Z JANEM PAWŁEM II;|2|2|;szt.;|12,29|12,9|9788375952551
; ;|;T;|;DONIEBPRZAKLAM-P W0;|;DO NIEBA PRZEZ AKLAMACJĘ;|3|3|;szt.;|18,95|19,9|9788375952568
; ;|;T;|;OSTATNIELATO-P W0;|;OSTATNIE LATO;|686|686|;szt.;|25,71|27|9788375952582
; ;|;T;|;OJCIECPIOMISTR-P W1;|;OJCIEC PIO - MISTRZ SUMIEŃ ;|630|630|;szt.;|23,71|24,9|9788375952629
; ;|;T;|;PSAŁTERZ-P W1;|;PSAŁTERZ /BRANDSTAETTER/ W1;|1|1|;szt.;|28,48|29,9|9788375952643
; ;|;T;|;HUMORZAMBONY-P W0;|;HUMOR Z AMBONY;|26|26|;szt.;|7,62|8|9788375952667
; ;|;T;|;OJCIECELIASZ-P D2;|;OJCIEC ELIASZ D2;|1|1|;szt.;|38|39,9|9788375952711
; ;|;T;|;1001JPII;|;1001 RZECZY KTÓRE WARTO WIEDZIEĆ O JANIE PAWLE II;|4|4|;szt.;|28,48|29,9|9788375952735
; ;|;T;|;P-ZRANIONYPASTER-D10;|;ZRANIONY PASTERZ D10;|331|331|;szt.;|16,19|17|9788375952759
; ;|;T;|;CHESTER-P W0;|;CHESTER;|3|3|;szt.;|23,71|24,9|9788375952773
; ;|;T;|;KAPLAPIERWIEK-P W0;|;KAPŁANI PIERWSZYCH WIEKÓW;|291|291|;szt.;|38|39,9|9788375952780
; ;|;T;|2279|;HE LIKED TUESDAYS BEST PL;|3647|3647|;szt.;|38|39,9|9788375952797
; ;|;T;|493|;DOMOWE REKOLEKCJE Z JANEM PAWŁEM II;|1|1|;szt.;|9,43|9,9|9788375952841
; ;|;T;|;SZKOLAJPII;|;O MODLITWIE JAN PAWEŁ II NAUCZA;|3|3|;szt.;|18,95|19,9|9788375952858
; ;|;T;|2197|;MODLITEWNIK DO ŚW.  WALENTEGO ;|5|5|;szt.;|2,38|2,5|9788375952902
; ;|;K;|2170|;KPL - HISTORIA TEOLOGII;|4|4|;szt.;|380|399|9788375952919
; ;|;T;|;ALFABETKACZYNS-P W1;|;ALFABET BRACI KACZYŃSKICH W1;|543|543|;szt.;|27,62|29|9788375952926
; ;|;T;|;TEOFIL-P W0;|;TEOFIL;|2654|2654|;szt.;|38|39,9|9788375952933
; ;|;T;|;ZABÓJCZEEMOCJE-P D3;|;ZABÓJCZE EMOCJE D3;|19|19|;szt.;|28,48|29,9|9788375952940
; ;|;T;|;ZABÓJCZEEMOCJE-P D6;|;ZABÓJCZE EMOCJE ;|728|728|;szt.;|28,48|29,9|9788375952950
; ;|;K;|2158|;KPL - ŻYCIE JEZUSA /CARVAJAL/;|1|1|;szt.;|47,52|49,9|9788375952957
; ;|;T;|;NIEZBĘDNIKPARA-P W0;|;NIEZBĘDNIK PARAFIALNY;|1348|1348|;szt.;|5,62|5,9|9788375952988
; ;|;T;|;ANIOLOWIEIKOSM-P W0;|;ANIOŁOWIE I KOSMICI;|949|949|;szt.;|18,95|19,9|9788375953015
; ;|;T;|;BIBLIALECZAST-P D1;|;BIBLIA LECZY - ASTMA D1;|33|23|;szt.;|12,38|13|9788375953039
; ;|;T;|;ZAWODEGZORCYST-P W0;|;ZAWÓD EGZORCYSTA;|24|24|;szt.;|23,71|24,9|9788375953046
; ;|;T;|;P-1001RZKWWOJPII-D1;|;1001 RZECZY KTÓRE WARTO WIEDZIEĆ O JP II D1 ;|25|25|;szt.;|28,48|29,9|9788375953053
; ;|;T;|;MOCNIJCOWIE-P W0;|;MOCNI OJCOWIE, MOCNE CÓRKI;|866|866|;szt.;|28,48|29,9|9788375953060
; ;|;T;|;BIBLIALECZCHS-P D1;|;BIBLIA LECZY - CHOROBY SKÓRY D1;|54|44|;szt.;|12,38|13|9788375953077
; ;|;T;|;P-ORODZINIEJPIINA-W0;|;O RODZINIE JAN PAWEŁ II NAUCZA;|5|5|;szt.;|23,71|24,9|9788375953084
; ;|;T;|;CZYJESZCZEWART-P W0;|;CZY JESZCZE WARTO ROZMAWIAĆ;|361|361|;szt.;|28,48|29,9|9788375953091
; ;|;T;|;BIBLIALECZNAD-P D2;|;BIBLIA LECZY - NADCIŚNIENIE ;|34|24|;szt.;|12,38|13|9788375953114
; ;|;T;|;JAKPRZETRWKRYZ-P W0;|;JAK PRZETRWAĆ KRYZYS MAŁŻEŃSKI;|204|204|;szt.;|18,95|19,9|9788375953138
; ;|;T;|;P-PRZYRODOLECZNIC-D6;|;PRZYRODOLECZNICTWO D6;|738|738|;szt.;|23,71|24,9|9788375953145
; ;|;T;|;BIBLIALECZST-P D1;|;BIBLIA LECZY - STRES  D1;|33|33|;szt.;|12,38|13|9788375953152
; ;|;T;|;P-OWALCEDUCHOWEJ-W0;|;O WALCE DUCHOWEJ JAN PAWEŁ II NAUCZA;|71|71|;szt.;|23,71|24,9|9788375953169
; ;|;T;|;BIBLIALECZZAB-P D1;|;BIBLIA LECZY - ZABURZENIA SNU D1;|54|54|;szt.;|12,38|13|9788375953190
; ;|;T;|;NIEZNANEOBLICZ-P W0;|;NIEZNANE OBLICZE PONTYFIKATU;|50|50|;szt.;|18,95|19,9|9788375953206
; ;|;T;|;P-APOPEOFTDIVINEM-W0;|;A POPE OF THE DIVINE MERCY W0;|1235|1235|;szt.;|16,19|17|9788375953213
; ;|;T;|;P-JPIISLOWAPELNES-W0;|;JAN PAWEŁ II SŁOWA PEŁNE ŚWIATŁA;|1|1|;szt.;|14,24|14,95|9788375953244
; ;|;T;|;OSTATDNIPRYM-P W0;|;OSTATNIE DNI PRYMASA TYSIĄCLECIA;|698|698|;szt.;|33,24|34,9|9788375953251
; ;|;T;|;MALZDROGOWSK-P W6;|;MAŁŻEŃSKIE DROGOWSKAZY;|227|227|;szt.;|18,95|19,9|9788375953268
; ;|;T;|;BOMBAWSZKOLE-P W0;|;BOMBA W SZKOLE;|378|378|;szt.;|33,24|34,9|9788375953275
; ;|;T;|;PAPIEZIPRYMAS-P W0;|;PAPIEŻ I PRYMAS;|56|56|;szt.;|14,24|14,95|9788375953282
; ;|;T;|;WYBRANYPRZEZNI-P W0;|;WYBRANY PRZEZ NIEPOKALANĄ;|21|21|;szt.;|16,14|16,95|9788375953299
; ;|;T;|;NOCNAROZMOWA-P W0;|;NOCNA ROZMOWA ;|1279|1279|;szt.;|28,48|29,9|9788375953336
; ;|;T;|;BIBLECZYPOKZLY-P W0;|;BIBLIA LECZY- POKONYWANIE ZŁYCH MYŚLI;|514|514|;szt.;|18,95|19,9|9788375953374
; ;|;T;|;SAKRPOJEDN-P D3;|;SAKRAMENT POJEDNANIA;|184|184|;szt.;|16,19|17|9788375953398
; ;|;T;|2162|;BENEDYKT XVI JEZUS Z NAZARETU TOM 1 W1;|4|4|;szt.;|28,48|29,9|9788375953404
; ;|;T;|;BIBLIAOKONCU-P W0;|;BIBLIA O KOŃCU ŚWIATA ;|25|25|;szt.;|18,95|19,9|9788375953411
; ;|;T;|;OKULTYZMMAGIA-P D3;|;OKULTYZM, MAGIA, DEMONOLOGIA ;|3|3|;szt.;|18,95|19,9|9788375953428
; ;|;T;|;SWOPIOCYRENEJ-P W1;|;ŚWIĘTY OJCIEC PIO - CYRENEJCZYK DLA WSZYSTKICH;|128|128|;szt.;|28,48|29,9|9788375953435
; ;|;T;|;PRZYSZLOSCZOGR-P D1;|;PRZYSZŁOŚĆ Z OGRANICZONĄ ODPOWIEDZIALNOŚCIĄ;|81|26|;szt.;|28,48|29,9|9788375953442
; ;|;T;|;RYBALUDOJAD-P W0;|;RYBA LUDOJAD. FELIETONY ;|27|27|;szt.;|33,24|34,9|9788375953459
; ;|;T;|;LISTYAMBROZYT3-P W0;|;LISTY T.3 / ŚW. AMBROŻY Z MEDIOLANU;|571|571|;szt.;|47,52|49,9|9788375953473
; ;|;T;|;DOLINANICOŚCI-P D3;|;DOLINA NICOŚCI D3;|445|445|;szt.;|28,48|29,9|9788375953480
; ;|;T;|;BLJPIILITANIEN-P W0;|;BŁ. JAN PAWEŁ II LITANIE, NOWENNY, MODLITWY;|1|1|;szt.;|14,24|14,95|9788375953497
; ;|;T;|;DZIENNIKEGZORC-P D1;|;DZIENNIK EGZORCYSTY D1;|5|5|;szt.;|18,95|19,9|9788375953503
; ;|;T;|;LECHKACZPORTRE-P W1;|;LECH KACZYŃSKI PORTRET;|44|9|;szt.;|33,29|34,95|9788375953527
; ;|;T;|107|;JAN PAWEŁ II KOMENTARZ DO PACIERZA;|47|47|;szt.;|14,24|14,95|9788375953541
; ;|;T;|;EWANGELIAWGHER-P W0;|;EWANGELIA WEDŁUG HERODA ;|61|61|;szt.;|28,48|29,9|9788375953565
; ;|;T;|;ZYCIENAMAKSA-P D2;|;ŻYCIE NA MAKSA. PORADNIK UCZUCIOWO-SEKSUALNY;|1491|1491|;szt.;|14,19|14,9|9788375953572
; ;|;T;|;ROZMBEZRETUSZU-P W0;|;ROZMOWY BEZ RETUSZU;|69|69|;szt.;|33,24|34,9|9788375953589
; ;|;T;|;LARCHEWSPODLPO-P W0;|;L'ARCHE WSPÓLNOTA DLA POSZUKUJĄCYCH;|1178|1178|;szt.;|28,48|29,9|9788375953619
; ;|;T;|;JAKPRZECIWSTAW-P W0;|;JAK PRZECIWSTAWIAĆ SIĘ ZŁU;|438|438|;szt.;|23,71|24,9|9788375953626
; ;|;T;|;P-ANIELSKAPAMIAT-W0;|;ANIELSKA PAMIĄTKA PIERWSZEJ KOMUNII ŚWIĘTEJ;|1356|1356|;szt.;|18,95|19,9|9788375953633
; ;|;T;|;P-1001THINGSYSKAT-W0;|;1001THINGS YOU SHOULD KNOW ABOUT THE BLESSED -JPII;|4497|4497|;szt.;|28,48|29,9|9788375953640
; ;|;T;|;MALZENSKIETEMP-P D4;|;MAŁŻEŃSKIE TEMPERAMENTY;|376|376|;szt.;|18,95|19,9|9788375953657
; ;|;T;|;ODTRUWANIEŁASK-P W0;|;ODTRUWANIE ŁASKI;|3|3|;szt.;|40|42|9788375953664
; ;|;T;|;KTÓCZLOWBOG-P W1;|;KTÓRY CZŁOWIEK BOGATY MOŻE BYĆ ZBAWIONY;|321|221|;szt.;|14,19|14,9|9788375953671
; ;|;T;|;P-PRAYERSOFTBJPII-W0;|;PRAYERS OF THE BLESSED JONH PAUL II TO OUR LADY;|1150|1150|;szt.;|18,95|19,9|9788375953688
; ;|;T;|;P-TAKIEBUTYZCHOL-W0;|;TAKIE BUTY Z CHOLEWAMI;|1370|1370|;szt.;|33,24|34,9|9788375953695
; ;|;T;|;LISTYAMBROZYT1-P W1;|;LISTY T.1 / ŚW. AMBROŻY Z MEDIOLANU W1;|209|209|;szt.;|38|39,9|9788375953718
; ;|;T;|;P-RETREATWTBJPII-W0;|;RETREAT WITH THE BLESSED JOHN PAUL II;|1132|1132|;szt.;|18,95|19,9|9788375953725
; ;|;T;|;ZYCIEMARYI-P W0;|;ŻYCIE MARYI;|757|757|;szt.;|28,48|29,9|9788375953732
; ;|;T;|;OPIOHEROICZNY-P W1;|;OJCIEC PIO - HEROICZNY SPOWIEDNIK ;|125|125|;szt.;|18,95|19,9|9788375953749
; ;|;T;|; LISTYAMBROZYT2-P W1;|;LISTY T.2 / ŚW. AMBROŻY Z MEDIOLANU W1;|221|221|;szt.;|33,24|34,9|9788375953756
; ;|;T;|;MODLITWAWCISZY-P W0;|;MODLITWA W CISZY/KS.MUSZALA;|14|14|;szt.;|9,43|9,9|9788375953770
; ;|;T;|;DOBREGODNIA-P W0;|;DOBREGO DNIA;|20|20|;szt.;|18,95|19,9|9788375953787
; ;|;T;|;PODREGZORC-W0;|;PODRĘCZNIK EGZORCYSTY - JASNE SŁOWA NA TEMAT CIEMN;|69|69|;SZT;|23,71|24,9|9788375953794
; ;|;T;|;P-KORONKIDOMIŁB-D5;|;KORONKI DO MIŁOSIERDZIA BOŻEGO;|31|31|;szt.;|2,38|2,5|9788375953800
; ;|;T;|;P-DROGAKRZYŻOWA-W0;|;DROGA KRZYŻOWA;|490|490|;szt.;|9,43|9,9|9788375953862
; ;|;T;|;FULLWYPAS-P W1;|;FULL WYPAS, CZYLI CHRZEŚCIJAŃSTWO Z PAZUREM W1;|4|4|;szt.;|16,19|17|9788375953879
; ;|;T;|;CZYŻYJEMYWCZAS-P W0;|;CZY ŻYJEMY W CZASACH APOKALIPSY;|137|137|;szt.;|18,95|19,9|9788375953909
; ;|;T;|;PROBLEMYBEZŚCI-P W1;|;PROBLEMY BEZ ŚCIEMY W1;|83|83|;szt.;|16,19|17|9788375953916
; ;|;T;|;P-SWANIOLSTRMODLI-D7;|;ŚW. ANIOŁ STRÓŻ - MODLITEWNIK D7;|18|18|;szt.;|2,38|2,5|9788375953923
; ;|;T;|;KROWYCHUDE-P W0;|;KROWY CHUDE KROWY TŁUSTE;|177|177|;szt.;|33,24|34,9|9788375953930
; ;|;T;|;TAJEMNICABOŻEJ-P W0;|;TAJEMNICA BOŻEJ OBECNOŚCI;|1784|1784|;szt.;|28,52|29,95|9788375953947
; ;|;T;|;DZIECIĘCYMPIÓR-P D11;|;DZIECIĘCYM PIÓREM D11;|530|530|;szt.;|28,48|29,9|9788375953954
; ;|;T;|;P-MODLITEWNIKSWEK-D7;|;MODLITEWNIK. ŚW. EKSPEDYT;|2|2|;szt.;|2,38|2,5|9788375953961
; ;|;T;|;WZÓRNASZCZĘŚCI-P W0;|;WZÓR NA SZCZĘŚCIE;|238|238|;szt.;|14,19|14,9|9788375953978
; ;|;T;|;P-KOMENTARZDOKSNT-W0;|;KOMENTARZ DO KSIĄG NOWEGO TESTAMENTU;|256|256|;szt.;|71,43|75|9788375953985
; ;|;T;|;P-JPIIKOMDOST-W0;|;JAN PAWEŁ II KOMENTARZ DO KSIĄG STAREGO TESTAMENTU;|334|334|;szt.;|71,43|75|9788375953992
; ;|;T;|;NASDWOJE-P W3;|;NAS DWOJE W3;|411|411|;szt.;|23,71|24,9|9788375954005
; ;|;T;|;INWAZNEOPOGAN-P W0;|;INWAZJA NEOPOGAŃSTWA;|603|603|;szt.;|23,71|24,9|9788375954029
; ;|;T;|;CIOTKI-P W0;|;CIOTKI;|1375|1375|;szt.;|23,71|24,9|9788375954067
; ;|;T;|;JAKROZMZBOGIEM-P W4;|;JAK ROZMAWIAĆ Z BOGIEM W4;|1|1|;szt.;|14,19|14,9|9788375954081
; ;|;T;|;COWCIĄGATWODZ-P W0;|;CO WCIĄGA TWOJE DZIECKO;|285|285|;szt.;|23,71|24,9|9788375954104
; ;|;T;|;NAJBLUBIŁWT-P D7;|;NAJBARDZIEJ LUBIŁ WTORKI D7;|597|597|;szt.;|28,48|29,9|9788375954135
; ;|;T;|;VADEMECUMKATE-P D6;|;VADEMECUM KATECHETY D6;|697|697|;szt.;|65,71|69|9788375954142
; ;|;T;|;PRZEWPOZJAWNAD-P W1;|;PRZEWODNIK PO ZJAWISKACH NADNATURALNYCH W1;|274|274|;szt.;|28,48|29,9|9788375954166
; ;|;T;|;OKAPŁAŃSTWIE-P D3;|;O KAPŁAŃSTWIE;|162|162|;szt.;|23,71|24,9|9788375954173
; ;|;T;|;WSZYSTKOJESTPO-P W0;|;WSZYSTKO JEST PO COŚ;|509|509|;szt.;|18,95|19,9|9788375954180
; ;|;T;|;UTWZEBRRACHUN-P W1;|;UTWORY ZEBRANE RACHUNEK DLA DOROSŁEGO W1;|1280|1280|;szt.;|18,95|19,9|9788375954203
; ;|;T;|;ELEMENTARZMALI-P W1;|;ELEMENTARZ KSIĘDZA MALIŃSKIEGO W1;|681|681|;szt.;|28,48|29,9|9788375954227
; ;|;T;|;P-UZDRAWIANIELUDZ-W5;|;UZDRAWIANIE LUDZKICH ZRANIEŃ;|34|34|;szt.;|23,71|24,9|9788375954241
; ;|;T;|;P-SKUPSIE-W0;|;SKUP SIĘ;|1|1|;szt.;|18,95|19,9|9788375954258
; ;|;T;|;CUDAWSTARYMTES-P W0;|;ALBUM CUDA W STARYM TESTAMENCIE;|1897|1897|;szt.;|18,95|19,9|9788375954265
; ;|;T;|;EKSPEDYT-P W0;|;EKSPEDYT-ŚWIĘTY OSTATNIEGO RATUNKU ;|1116|1106|;szt.;|18,95|19,9|9788375954289
; ;|;T;|;JAKWYCHOWAĆCHŁ-P W0;|;JAK WYCHOWAĆ CHŁOPCA NA MĘŻCZYZNĘ;|634|634|;szt.;|38|39,9|9788375954296
; ;|;T;|;P-MALYKATDLADZ-W0;|;MAŁY KATECHIZM DLA DZIECI;|1565|1565|;szt.;|18,95|19,9|9788375954302
; ;|;T;|;P-LISTAPPORTA-W0;|;LIST APOSTOLSKI PORTA FIDEI;|2003|2003|;szt.;|5,62|5,9|9788375954326
; ;|;T;|;P-ŻYWOTMARYI-W0;|;ŻYWOT MARYI;|1039|1039|;szt.;|57,05|59,9|9788375954333
; ;|;T;|;PARTWOLSLOWA-P W0;|;PARTYZANT WOLNEGO SŁOWA;|2474|2474|;szt.;|28,48|29,9|9788375954340
; ;|;T;|;NEOSPIRYTYZM-P W0;|;NEOSPIRYTYZM I PSEUDOPSYCHOLOGIE ;|826|826|;szt.;|28,48|29,9|9788375954364
; ;|;T;|;PRZEWODPOTRUWI-P W1;|;PRZEWODNIK PO TRUDNOŚCIACH WIARY;|282|282|;szt.;|47,52|49,9|9788375954371
; ;|;T;|;BRAMYDOBIBLCD-P W0;|;BRAMY DO BIBLII/ŚWIDERKÓWNA;|623|623|;szt.;|23,71|24,9|9788375954388
; ;|;T;|;SEKRETYBIBLII-P W0;|;SEKRETY BIBLII;|228|228|;szt.;|28,48|29,9|9788375954401
; ;|;T;|;PSYCHWKONFESJO-P W0;|;PSYCHOLOG W KONFESJONALE;|138|138|;szt.;|18,95|19,9|9788375954418
; ;|;T;|;W-ALBUMOSIEMBŁOGO-W0;|;ALBUM OSIEM BŁOGOSŁAWIEŃSTW;|2369|2369|;szt.;|18,95|19,9|9788375954425
; ;|;T;|;MILOSCWSZWYJ-P W0;|;MIŁOŚĆ WSZYSTKO WYJAŚNIA;|344|344|;szt.;|11,43|12|9788375954449
; ;|;T;|;P-MEDJRATUNEK-W0;|;RATUNEK Z NIEBA;|1236|1236|;szt.;|18,95|19,9|9788375954463
; ;|;T;|;UZDRAWIAMOCMAR-P W0;|;UZDRAWIAJĄCA MOC MARYI ;|59|59|;szt.;|18,95|19,9|9788375954487
; ;|;T;|;NOWENIWEZWOPIO-P W0;|;NOWENNY I WEZWANIA LITANIJNE OJCA PIO;|1065|1065|;szt.;|16,19|17|9788375954494
; ;|;T;|;PRZEBUDZENIE-P W0;|;PRZEBUDZENIE ;|1595|1595|;szt.;|28,48|29,9|9788375954500
; ;|;T;|;OSOBMODLITOPIO-P W0;|;OSOBISTE MODLITWY ŚW. OJCA PIO;|672|672|;szt.;|9,43|9,9|9788375954531
; ;|;T;|;POSTPOLONIA-P W0;|;POST-POLONIA;|2376|2376|;szt.;|28,48|29,9|9788375954562
; ;|;T;|;JAKMODLISIĘZDZ-N W0;|;JAK MODLIĆ SIĘ Z DZIEĆMI;|425|325|;szt.;|14,19|14,9|9788375954579
; ;|;T;|;SENNIKBIBLIJNY-P W0;|;SENNIK BIBLIJNY/ JURCZYŃSKI;|953|953|;szt.;|18,95|19,9|9788375954586
; ;|;T;|;RADOSCIUSOPIO-P W1;|;RADOŚĆ I UŚMIECH OJCA PIO ;|53|53|;szt.;|28,48|29,9|9788375954609
; ;|;T;|;P-HILDEGMYSLI-W0;|;SŁOWA PEŁNE ŚWIATŁA ŚW. HILDEGARDA;|1872|1872|;szt.;|16,19|17|9788375954623
; ;|;T;|;PRZEWPOBIELANA-P D3;|;PRZEWODNIK PO BIELANACH;|105|105|;szt.;|23,71|24,9|9788375954647
; ;|;T;|;CHRZESCKONTRAM-P W0;|;CHRZEŚCIJAŃSTWO KONTRA MAGIA;|487|487|;szt.;|23,71|24,9|9788375954654
; ;|;T;|;TAJEMNICAOJC-P D1;|;TAJEMNICA OJCOSTWA;|210|210|;szt.;|14,19|14,9|9788375954685
; ;|;T;|;P-ROZWAZANIAROZAN-W0;|;ROZWAŻANIA RÓŻAŃCOWE;|221|221|;szt.;|14,19|14,9|9788375954692
; ;|;T;|;METODTEOLPRAK-P W0;|;METODOLOGIA TEOLOGII PRAKTYCZNEJ;|79|79|;szt.;|33,24|34,9|9788375954722
; ;|;T;|;ZMANIPULUJĘCIĘ-P W0;|;ZMANIPULUJĘ CIĘ KOCHANIE;|1245|1245|;szt.;|23,71|24,9|9788375954739
; ;|;T;|;WIERSZENIEBO-P D1;|;WIERSZE.NIEBO W DOBRYM HUMORZE;|1224|1224|;szt.;|18,95|19,9|9788375954746
; ;|;T;|;JAKODZYSKWIAR-P W0;|;JAK ODZYSKAĆ WIARĘ;|391|391|;szt.;|18,95|19,9|9788375954760
; ;|;T;|;SWIATLOSCSERCA-P W0;|;ŚWIATŁOŚĆ SERCA;|1683|1683|;szt.;|28,52|29,95|9788375954777
; ;|;T;|;WIERSZEBIEDRO-P D1;|;WIERSZE.BIEDRONECZKO LEĆ DO NIEBA;|791|791|;szt.;|18,95|19,9|9788375954784
; ;|;T;|;CHCEBYCSZCZ-N W0;|;CHCĘ BYĆ SZCZĘŚLIWA - TYLKO DLA DZIEWCZYN;|5|5|;szt.;|9,43|9,9|9788375954807
; ;|;T;|;KOMPENPATRIOT-P W0;|;KOMPENDIUM PATRIOTYZMU;|770|770|;szt.;|23,71|24,9|9788375954814
; ;|;T;|;WIERNIBOJSKOCH-P D1;|;WIERSZE. NIE BÓJ SIĘ KOCHAĆ;|1094|1094|;szt.;|18,95|19,9|9788375954821
; ;|;T;|;MOGEZWYCIEZYC-N W0;|;MOGĘ ZWYCIĘŻYĆ - TYLKO DLA CHŁOPAKÓW;|448|448|;szt.;|9,43|9,9|9788375954845
; ;|;T;|;W-MALYMODROZZJPII-W2;|;MAŁY MODLITEWNIK RÓŻAŃCOWY Z JPII;|3701|3701|;szt.;|2,76|2,9|9788375954852
; ;|;T;|;WIERNIEBOKUL-P D1;|;WIERSZE. NIEBIESKIE OKULARY;|2216|2216|;SZT;|18,95|19,9|9788375954869
; ;|;T;|;DZIEŃZŻYCIADIA-P W0;|;DZIEŃ Z ŻYCIA DIABŁA;|238|238|;szt.;|18,95|19,9|9788375954890
; ;|;T;|;WIERZNAKUFNOŚC-P D1;|;WIERSZE. ZNAKI UFNOŚCI;|1610|1610|;szt.;|18,95|19,9|9788375954906
; ;|;T;|;OGŁUPOCIE-P W0;|;O GŁUPOCIE;|700|700|;szt.;|28,48|29,9|9788375954920
; ;|;T;|;ALBUM10PRZYK-N W0;|;DZIESIĘCIORO PRZYKAZAŃ;|467|467|;szt.;|18,95|19,9|9788375954937
; ;|;T;|;WIERSZEPOWRÓTA-P W1;|;WIERSZE. POWRÓT ANDERSENA;|1074|1074|;szt.;|18,95|19,9|9788375954944
; ;|;T;|;P-ŻYWOTJEZUSA-W0;|;ŻYWOT JEZUSA;|594|594|;szt.;|71,43|75|9788375954968
; ;|;T;|;LEKSYKONTERALT-P W0;|;LEKSYKON TERAPII ALTERANTYWNYCH;|797|797|;szt.;|47,52|49,9|9788375955019
; ;|;T;|;NAJLEPOMBOGA-P W1;|;NAJLEPSZE POMYSŁY BOGA;|262|262|;szt.;|23,71|24,9|9788375955040
; ;|;T;|;TAJCHORPRZEŚLA-P W0;|;ŚW.O.PIO TAJEMNICZE CHOROBY,PRZEŚLADOWANIA;|559|559|;szt.;|28,48|29,9|9788375955057
; ;|;T;|;W-POTWIAR-W0;|;POTĘGA WIARY;|14|14|;szt.;|23,71|24,9|9788375955088
; ;|;T;|;KTOZABILJEZUSA-P W0;|;KTO ZABIŁ JEZUSA? / P. LISICKI;|823|823|;szt.;|38|39,9|9788375955095
; ;|;T;|;BRYGIDAWIEOBJ-P W1;|;BRYGIDA WIELKA OBJAWIENIA;|254|244|;szt.;|28,48|29,9|9788375955125
; ;|;T;|;WYPALENIEZAWOD-P W0;|;WYPALENIE ZAWODOWE;|924|924|;szt.;|28,48|29,9|9788375955132
; ;|;T;|;ANEGDOTYNIEPOS-P W0;|;ANEGDOTY NIEPOŚWIĘCONE;|1291|1291|;szt.;|14,19|14,9|9788375955163
; ;|;T;|;W-MODLITWMARCH-D4;|;MODLITWY DO ŚW. MICHAŁA ARCHANIOŁA D4;|541|541|;szt.;|11,43|12|9788375955200
; ;|;T;|;LUDZIEJULYA-P W0;|;LUDZIE JULYA;|1583|1583|;szt.;|33,24|34,9|9788375955255
; ;|;T;|;W-WYZNWIARY-W0;|;WYZNANIE WIARY;|1284|1284|;szt.;|14,19|14,9|9788375955286
; ;|;T;|;DOBREWIESCZPRZ-P W0;|;DOBRE WIEŚCI Z PRZYPOWIEŚCI;|1037|1037|;szt.;|18,95|19,9|9788375955293
; ;|;T;|;SZTUKUPRÓZKOL-P W0;|;SZTUKA UPRAWIANIA RÓŻ Z KOLCAMI;|1284|1284|;szt.;|33,24|34,9|9788375955323
; ;|;T;|;RACHUNEKSUMISP-P W0;|;RACHUNEK SUMIENIA I SPOWIEDŹ;|1314|1314|;szt.;|14,19|14,9|9788375955330
; ;|;T;|;SWIECIIDEMONY-P W0;|;ŚWIĘCI I DEMONY;|1141|1141|;szt.;|23,71|24,9|9788375955378
; ;|;T;|;P-6SIGMA-W0;|;LEAN BANKING;|873|873|;szt.;|42,76|44,9|9788375955408
; ;|;T;|;MODLITWAWCISZY-P W2;|;MODLITWA W CISZY w2;|43|43|;szt.;|9,43|9,9|9788375955446
; ;|;T;|;BIBLIA-P W0;|;BIBLIA;|615|615|;szt.;|71,43|75|9788375955453
; ;|;T;|;EGZORIOPETM-P W0;|;EGZORCYZMY I OPĘTANIA M;|4825|4825|;szt.;|16,19|17|9788375955484
; ;|;T;|;P-JEZUSZNAZARET1-D6;|;JEZUS Z NAZARETU  T1 D6;|213|203|;szt.;|28,48|29,9|9788375955521
; ;|;T;|;BIBLIAS-P W0;|;BIBLIA S;|1549|1549|;szt.;|71,43|75|9788375955538
; ;|;T;|;W-SINGLE-W0;|;SINGLE ;|1761|1761|;szt.;|33,24|34,9|9788375955569
; ;|;T;|;EGROLEWDIWO-P W0;|;EGZOTYCZNE ROŚLINY LECZNICZE W DOMU I W OGRODZIE;|3209|3209|;szt.;|23,71|24,9|9788375955576
; ;|;T;|;W-REKALOJZYOR-W0;|;REKOLEKCJE Z ŚW ALOJZY ORIONE;|984|984|;szt.;|18,95|19,9|9788375955606
; ;|;T;|;ŚLADYKRWI-P W0;|;ŚLADY KRWI;|1812|1812|;szt.;|38|39,9|9788375955613
; ;|;T;|;REKRABCZAŃSKIE-P W0;|;REKOLEKCJE RABCZAŃSKIE;|1051|1051|;szt.;|28,48|29,9|9788375955644
; ;|;T;|;DIETAIPOST-P W1;|;DIETA I POST WG ŚW. HILDEGARDY ;|305|305|;szt.;|23,71|24,9|9788375955651
; ;|;T;|;NARESZCIERAZEM-P W0;|;NARESZCIE RAZEM;|662|662|;szt.;|18,95|19,9|9788375955682
; ;|;T;|;HOMILIA50LAT-N W0;|;HOMILIA 50 LAT PO SOBORZE;|275|275|;szt.;|33,24|34,9|9788375955699
; ;|;T;|;OKRZYWDZPRZECD-P W0;|;O KRZYWDZIE, PRZEBACZENIU I SPOWIEDZI +CD;|436|436|;szt.;|23,71|24,9|9788375955729
; ;|;T;|;OUCZIINNYCHTLS-P W0;|;O UCZUCIACH I INNYCH TRUDNYCH LUDZKICH SPRAWACH+CD;|477|477|;szt.;|23,71|24,9|9788375955767
; ;|;T;|;ANTYKACZYZM-P W0;|;ANTYKACZYZM;|1412|1412|;szt.;|23,71|24,9|9788375955774
; ;|;T;|;DROGAKRZYŻOWA-P W0;|;DROGA KRZYŻOWA ŚW. O. PIO;|1283|1283|;szt.;|9,43|9,9|9788375955804
; ;|;T;|;NIEZNANEOBLICZ-P D1;|;NIEZNANE OBLICZE PONTYFIKATU;|370|370|;szt.;|18,95|19,9|9788375955842
; ;|;T;|;NATCHPORAD-P W0;|;NATCHNIONE PORADY DLA DUCHA I CIAŁA ŚW. HILDEGARDY;|1728|1728|;szt.;|16,19|17|9788375955859
; ;|;T;|;OJSWFRANUPRPON-P W0;|;OJCIEC ŚW. FRANCISZEK. U PROGU PONTYFIKATU;|107|107|;szt.;|3,71|3,9|9788375955866
; ;|;T;|;PIEKOMSWZPFRAN-N W0;|;PIERWSZA KOMUNIA ŚW. Z PAPIEŻEM FRANCISZKIEM;|20|20|;szt.;|18,95|19,9|9788375955880
; ;|;T;|;ŻYCIEPOŚMIERCI-P W0;|;ŻYCIE PO ŚMIERCI;|1608|1608|;szt.;|18,95|19,9|9788375955903
; ;|;T;|;CHKOSUBODLUBM-P W0;|;CHCIAŁBYM KOŚCIOŁA UBOGIEGO DLA UBOGICH M;|8714|8714|;szt.;|9,48|9,95|9788375955941
; ;|;T;|;W-KROLOWASN-W0;|;KRÓLOWA ŚNIEGU;|632|632|;szt.;|38|39,9|9788375955965
; ;|;K;|737|;KPL - ZMIERZCH CENA;|100|0|;szt.;|65,41|68,68|9788375955989
; ;|;T;|;KWIATPAPFRANCI-P W0;|;KWIATKI PAPIEŻA FRANCISZKA;|2723|2723|;szt.;|18,95|19,9|9788375956009
; ;|;K;|;KOMNAPIERKOMSW-N PO;|;KOMPLET NA PIERWSZĄ KOMUNIĘ ŚWIĘTĄ;|67|67|;szt.;|90,38|94,9|9788375956023
; ;|;T;|;KUCHNIASWHILD-P W1;|;KUCHNIA ŚW. HILDEGARDY;|263|263|;szt.;|28,48|29,9|9788375956047
; ;|;T;|;PIERAPOLGRECCY-P W1;|;PIERWSI APOLOGECI GRECCY;|415|415|;szt.;|42,76|44,9|9788375956085
; ;|;T;|;NIEZGASIENAZLO-P W0;|;NIE ZGADZAJ SIĘ NA ZŁO;|1780|1780|;szt.;|28,48|29,9|9788375956207
; ;|;T;|;BIBLIAZOBWOLUT-N W0;|;BIBLIA Z OBWOLUTĄ;|1252|1158|;szt.;|71,43|75|9788375956962
; ;|;T;|;P-POCZETPRYMASÓW-W0;|;POCZET PRYMASÓW POLSKICH;|411|411|;szt.;|240|252|9788375957982
; ;|;T;|;WJEGORANACHMIE-P D2;|;W JEGO RANACH -  MIĘKKA OPRAWA /J. AUGUSTYN - D2;|145|145|;szt.;|28,48|29,9|9788386106547
; ;|;T;|;838957151X;|;PAPIEŻ, KTÓRY ZMIENIŁ ŚWIAT;|1|1|;SZT;|37,14|39|9788389571519
; ;|;T;|2092|;PODARUJ MI KOWBOJSKI STRÓJ;|5|5|;szt.;|17,14|18|9788390531991
; ;|;T;|;NOWENNA;|;NOWENNA KU CZCI NIEPOKALANEJ DZIEWICY MARYI;|2|2|;szt.;|11,43|12|9788975950465
; ;|;T;|;HISTIDEALISTKI-P W0;|;HISTORIA IDEALISTKI;|1540|1540|;szt.;|57,13|59,99|9789941022043
; ;|;T;|;P-SWANIOŁSTRMODLI-D8;|;ŚW. ANIOŁ STRÓŻ - MODLITEWNIK D8;|1290|1290|;szt.;|2,38|2,5|93788372217440
