;s;|;r;|;sym;|;Tytuł;|;Ilość zamawiana;|;Ilość otrzymana;|;Rabat %;|;Cena nabycia netto;|;Cena detaliczna netto;|;EAN;
|||;ALBUM KRESY;|8|8||14,24||9788361881261
|||;ALBUM POLSKI DWÓR z mapą;|10|10||23,76||9788378641445
|||;ALBUM ZIEMIA ZBAWICIELA - nowe wydanie;|10|10||14,24||9788361060772
|||;APTEKA NA ŁĄCE.  Zioła, które leczą;|10|10||15,20||9788378642848
|||;CRISTEROS. Miłość i krzyż;|12|12||11,39||9788378642725
|||;CUDA I TAJEMNICE Matki Bożej z Civitavecchia;|20|20||11,39||9788378641803
|||;CZAS BURZY;|20|20||11,39||9788378642244
|||;CZWARTA TAJEMNICA FATIMSKA?;|10|10||11,39||9788362927753
|||;DRAMAT KOŃCA CZASÓW. Św. Hildegarda z Bingen;|10|10||11,39||9788378641247
|||;KOŃ TROJAŃSKI W MIEŚCIE BOGA. Pół wieku po... ;|20|20||9,49||9788378640646
|||;KURACJA OCZYSZCZAJĄCA ORGANIZM;|20|20||5,68||9788378640080
|||;LECZNICZE TRUNKI. 44 sprawdzone przepisy;|10|10||19,00||9788361881803
|||;PAPIESKI MODLITEWNIK DLA SENIORÓW;|20|20||9,48||9788378640882
|||;PROROCTWO O KOŃCU ŚWIATA. 10 tajemnic Medjugorje;|10|10||11,39||9788362927340
|||;PRZEWODNIK DLA TYCH, KTÓRZY NIE LUBIĄ SIĘ MODLIĆ;|20|20||9,48||9788378642282
|||;PSYCHIATRA W PIEKLE;|20|20||11,39||9788378640486
|||;SEKRETY DUSZ CZYŚĆCOWYCH;|20|20||7,58||9788362927388
|||;ŚW. HILDEGARDA Z BINGEN. Objawienia i cuda;|10|10||11,39||9788378640561
|||;ŚWIĘCI NA KAŻDY PROBLEM;|10|10||13,30||9788378641360
|||;ŚWIĘTY OJCIEC PIO. Nieznane historie cudów... ;|10|10||11,39||9788362927791
|||;TAJEMNICA ADORACJI w mist. wizjach Cataliny Rivas;|40|40||3,77||9788378642480
|||;TAJEMNICA MEDJUGORIE. Maryja ratuje świat;|10|10||11,39||9788362927920
|||;TAJEMNICE CZASÓW OSTATECZNYCH;|10|10||11,39||9788362927357
|||;UWOLNIENIE Z MOCY ZŁEGO DUCHA;|20|20||11,39||9788361881759
|||;W JASKINI BESTII. Opowieści o egzorcyzmach;|20|20||11,39||9788362927500
|||;WIELKA KSIĘGA KUCHNI...+KLASZT. SAŁATKI KOMPLET;|1|1||113,90||9788378642640
|||;WODA JEST NAJLEPSZYM LEKARSTWEM;|20|20||7,58||9788378640004
