;S;|;Rodzaj;|;Symbol;|;Nazwa;|;Ilość zamawiana;|;Ilość otrzymana ;|;Rabat %;|;Cena nabycia netto;|;Cena detaliczna netto;|;Kod kreskowy;
||;D9788300001001;|;Drewno słoje poz. 9  ;|10|10||2,44|5,2|;9788300001001;
||;D9788300001002;|;Drewno słoje poz. 11 (10 mm);|10|10||4,07|10,25|;9788300001002;
||;D9788300001003;|;Koral gąbczasty „10” poz. 167;|5|5||4,88|13,7|;9788300001003;
||;D9788300001004;|;Koral gąbczasty poz. 168;|3|3||20,33|45,9|;9788300001004;
||;D9788300001005;|;Hematyt poz. "10" 177;|10|10||4,07|9,1|;9788300001005;
||;D9788300001006;|;Czarny agat poz. 185;|3|3||20,33|45,9|;9788300001006;
||;D9788300001007;|;Malahit poz. 189;|3|3||28,46|86,1|;9788300001007;
||;D9788300001008;|;Howlit turkus poz. 190;|5|5||16,26|45,9|;9788300001008;
||;D9788300001009;|;Turkus „10” poz. 191;|10|10||4,07|11,3|;9788300001009;
||;D9788300001010;|;Koral „10” poz. 193;|5|5||3,25|9,1|;9788300001010;
||;D9788300001011;|;Różańce w kolorach neonowych (żółty);|10|10||2,93|6,8|;9788300001011;
||;D9788300001012;|;Dziesiątki w kolorach neonowych (niebieski);|20|20||0,98|2,9|;9788300001012;
||;D9788300001013;|;Różańce w kolorach neonowych (zielony);|10|10||2,93|6,8|;9788300001013;
||;D9788300001014;|;Dziesiątki w kolorach neonowych (zielony);|20|20||0,98|2,9|;9788300001014;
||;D9788300001015;|;Różańce w kolorach neonowych (pomarańczowy);|10|10||2,93|6,8|;9788300001015;
||;D9788300001016;|;Dziesiątki w kolorach neonowych (pomarańczowy);|20|20||0,98|2,9|;9788300001016;
||;D9788300001017;|;Różaniec R001;|3|3||41,24|103,3|;9788300001017;
||;D9788300001018;|;Różaniec R005;|3|3||57,80|133,3|;9788300001018;
||;D9788300001019;|;Dziesiątka RM004;|1|1||24,44|75,8|;9788300001019;
||;D9788300001020;|;Dziesiątka RM003;|3|3||25,48|68,9|;9788300001020;
||;D9788300001021;|;Dzisiątka RM002;|1|1||15,60|57,4|;9788300001021;
||;D9788300001022;|;na palec RP7D;|3|3||12,69|45,9|;9788300001022;
||;D9788300001023;|;na palec RP8D;|3|3||14,11|45,9|;9788300001023;
||;D9788300001024;|;na palec RP8M;|3|3||8,46|45,4|;9788300001024;
||;D9788300001025;|;na palec RP7M;|3|3||9,27|45,4|;9788300001025;
||;D9788300002001;|;Krzyżyk K18;|3|3||5,76|17,15|;9788300002001;
||;D9788300002002;|;Krzyżyk K50;|2|2||10,88|41,3|;9788300002002;
||;D9788300002003;|;Krzyżyk K56;|5|5||3,71|13,7|;9788300002003;
||;D9788300002004;|;Krzyżyk K64;|3|3||15,50|44,7|;9788300002004;
||;D9788300002005;|;Krzyżyk KD021;|3|3||19,11|40,1|;9788300002005;
||;D9788300002006;|;Krzyżyk KD044;|5|5||6,37|17,1|;9788300002006;
||;D9788300002007;|;Medalik prasa M11;|5|5||2,87|8,6|;9788300002007;
||;D9788300002008;|;Medalik prasa M12;|5|5||3,00|8,6|;9788300002008;
||;D9788300002009;|;Medalik diamentowany MD001;|3|3||22,50|63,1|;9788300002009;
||;D9788300002010;|;Medalik diamentowany MD059A;|3|3||8,00|21,7|;9788300002010;
||;D9788300002011;|;Krzyż poz. 064;|2|2||17,89|48,1|;9788300002011;
||;D9788300002012;|;Krzyż poz. 067;|2|2||5,53|13,7|;9788300002012;
||;D9788300002013;|;Krzyż poz. 068;|2|2||3,66|7,9|;9788300002013;
||;D9788300003001;|;Łańcuszek PD 0,50;|3|3||12,70|41,3|;9788300003001;
||;D9788300003002;|;Łańcuszek PD0,75;|1|1||27,79|80,4|;9788300003002;
||;D9788300003003;|;Łańcuszek RDII 0,50;|1|1||15,30|43,6|;9788300003003;
||;D9788300003004;|;Łańcuszek RDII 0,70;|2|2||29,22|83,8|;9788300003004;
||;D9788300003005;|;Łańcuszek V1,00;|3|3||9,15|27,5|;9788300003005;
||;D9788300003006;|;Łańcuszek VS1,00;|3|3||8,22|25,2|;9788300003006;
||;D9788300005001;|;aniołek poz. 003;|2|2||7,32|20,6|;9788300005001;
||;D9788300005002;|;aniołek poz. 013;|2|2||10,98|26,3|;9788300005002;
||;D9788300005003;|;aniołek poz. 019;|2|2||7,32|20,6|;9788300005003;
||;D9788300005004;|;aniołek poz. 022;|2|2||10,98|26,3|;9788300005004;
||;D9788300005005;|;aniołek poz. 023;|2|2||10,98|26,3|;9788300005005;
||;D9788300005006;|;Matka Boska poz. 048;|2|2||10,16|28,6|;9788300005006;
||;D9788300005007;|;Matka Boska z Dzieciątkiem poz. 050;|2|2||13,41|30,9|;9788300005007;
